<?xml version="1.0" encoding="UTF-8"?>
<svg xmlns="http://www.w3.org/2000/svg" xmlns:xlink="http://www.w3.org/1999/xlink" width="613pt" height="266pt" viewBox="0 0 613 266" version="1.1">
<defs>
<g>
<symbol overflow="visible" id="glyph0-0">
<path style="stroke:none;" d="M 0.65625 2.265625 L 0.65625 -9.015625 L 7.046875 -9.015625 L 7.046875 2.265625 Z M 1.375 1.546875 L 6.34375 1.546875 L 6.34375 -8.296875 L 1.375 -8.296875 Z M 1.375 1.546875 "/>
</symbol>
<symbol overflow="visible" id="glyph0-1">
<path style="stroke:none;" d="M 1.34375 -9.328125 L 2.609375 -9.328125 L 2.609375 -1.0625 L 7.109375 -1.0625 L 7.109375 0 L 1.34375 0 Z M 1.34375 -9.328125 "/>
</symbol>
<symbol overflow="visible" id="glyph0-2">
<path style="stroke:none;" d="M 6.953125 -3.78125 L 6.953125 -3.21875 L 1.96875 -3.21875 L 1.96875 -3.1875 C 1.96875 -2.425781 2.164062 -1.835938 2.5625 -1.421875 C 2.957031 -1.003906 3.519531 -0.796875 4.25 -0.796875 C 4.613281 -0.796875 4.992188 -0.851562 5.390625 -0.96875 C 5.796875 -1.082031 6.222656 -1.257812 6.671875 -1.5 L 6.671875 -0.359375 C 6.242188 -0.179688 5.828125 -0.046875 5.421875 0.046875 C 5.015625 0.140625 4.617188 0.1875 4.234375 0.1875 C 3.148438 0.1875 2.300781 -0.140625 1.6875 -0.796875 C 1.070312 -1.453125 0.765625 -2.351562 0.765625 -3.5 C 0.765625 -4.613281 1.0625 -5.503906 1.65625 -6.171875 C 2.257812 -6.835938 3.0625 -7.171875 4.0625 -7.171875 C 4.957031 -7.171875 5.660156 -6.867188 6.171875 -6.265625 C 6.691406 -5.660156 6.953125 -4.832031 6.953125 -3.78125 Z M 5.796875 -4.125 C 5.785156 -4.800781 5.628906 -5.3125 5.328125 -5.65625 C 5.023438 -6.007812 4.585938 -6.1875 4.015625 -6.1875 C 3.460938 -6.1875 3.003906 -6.003906 2.640625 -5.640625 C 2.285156 -5.273438 2.078125 -4.769531 2.015625 -4.125 Z M 5.796875 -4.125 "/>
</symbol>
<symbol overflow="visible" id="glyph0-3">
<path style="stroke:none;" d="M 4 -2.53125 C 4 -2.019531 4.09375 -1.628906 4.28125 -1.359375 C 4.46875 -1.097656 4.75 -0.96875 5.125 -0.96875 L 6.453125 -0.96875 L 6.453125 0 L 5 0 C 4.3125 0 3.78125 -0.21875 3.40625 -0.65625 C 3.03125 -1.101562 2.84375 -1.726562 2.84375 -2.53125 L 2.84375 -8.890625 L 1 -8.890625 L 1 -9.796875 L 4 -9.796875 Z M 4 -2.53125 "/>
</symbol>
<symbol overflow="visible" id="glyph0-4">
<path style="stroke:none;" d="M 3.84375 -8.984375 L 3.84375 -7 L 6.453125 -7 L 6.453125 -6.109375 L 3.84375 -6.109375 L 3.84375 -2.3125 C 3.84375 -1.789062 3.9375 -1.425781 4.125 -1.21875 C 4.320312 -1.019531 4.664062 -0.921875 5.15625 -0.921875 L 6.453125 -0.921875 L 6.453125 0 L 5.046875 0 C 4.179688 0 3.570312 -0.171875 3.21875 -0.515625 C 2.863281 -0.859375 2.6875 -1.457031 2.6875 -2.3125 L 2.6875 -6.109375 L 0.8125 -6.109375 L 0.8125 -7 L 2.6875 -7 L 2.6875 -8.984375 Z M 3.84375 -8.984375 "/>
</symbol>
<symbol overflow="visible" id="glyph0-5">
<path style="stroke:none;" d="M 4.390625 -3.515625 L 4 -3.515625 C 3.332031 -3.515625 2.828125 -3.394531 2.484375 -3.15625 C 2.148438 -2.925781 1.984375 -2.578125 1.984375 -2.109375 C 1.984375 -1.691406 2.109375 -1.363281 2.359375 -1.125 C 2.617188 -0.894531 2.972656 -0.78125 3.421875 -0.78125 C 4.054688 -0.78125 4.550781 -1 4.90625 -1.4375 C 5.269531 -1.875 5.457031 -2.484375 5.46875 -3.265625 L 5.46875 -3.515625 Z M 6.609375 -4 L 6.609375 0 L 5.46875 0 L 5.46875 -1.03125 C 5.21875 -0.613281 4.90625 -0.304688 4.53125 -0.109375 C 4.15625 0.0859375 3.703125 0.1875 3.171875 0.1875 C 2.460938 0.1875 1.894531 -0.015625 1.46875 -0.421875 C 1.039062 -0.828125 0.828125 -1.363281 0.828125 -2.03125 C 0.828125 -2.8125 1.085938 -3.40625 1.609375 -3.8125 C 2.140625 -4.21875 2.910156 -4.421875 3.921875 -4.421875 L 5.46875 -4.421875 L 5.46875 -4.59375 C 5.457031 -5.15625 5.3125 -5.5625 5.03125 -5.8125 C 4.757812 -6.0625 4.316406 -6.1875 3.703125 -6.1875 C 3.304688 -6.1875 2.90625 -6.128906 2.5 -6.015625 C 2.101562 -5.910156 1.71875 -5.75 1.34375 -5.53125 L 1.34375 -6.671875 C 1.769531 -6.835938 2.175781 -6.960938 2.5625 -7.046875 C 2.957031 -7.128906 3.335938 -7.171875 3.703125 -7.171875 C 4.273438 -7.171875 4.765625 -7.082031 5.171875 -6.90625 C 5.585938 -6.738281 5.925781 -6.484375 6.1875 -6.140625 C 6.34375 -5.929688 6.453125 -5.671875 6.515625 -5.359375 C 6.578125 -5.054688 6.609375 -4.601562 6.609375 -4 Z M 4.71875 -10.234375 L 5.96875 -10.234375 L 3.9375 -7.890625 L 2.96875 -7.890625 Z M 4.71875 -10.234375 "/>
</symbol>
<symbol overflow="visible" id="glyph0-6">
<path style="stroke:none;" d="M 7.21875 -5.5625 C 6.96875 -5.75 6.71875 -5.882812 6.46875 -5.96875 C 6.21875 -6.0625 5.9375 -6.109375 5.625 -6.109375 C 4.914062 -6.109375 4.367188 -5.878906 3.984375 -5.421875 C 3.609375 -4.972656 3.421875 -4.328125 3.421875 -3.484375 L 3.421875 0 L 2.265625 0 L 2.265625 -7 L 3.421875 -7 L 3.421875 -5.625 C 3.609375 -6.125 3.898438 -6.503906 4.296875 -6.765625 C 4.703125 -7.035156 5.175781 -7.171875 5.71875 -7.171875 C 6 -7.171875 6.257812 -7.132812 6.5 -7.0625 C 6.75 -6.988281 6.988281 -6.878906 7.21875 -6.734375 Z M 7.21875 -5.5625 "/>
</symbol>
<symbol overflow="visible" id="glyph0-7">
<path style="stroke:none;" d="M 1.59375 -7 L 4.546875 -7 L 4.546875 -0.890625 L 6.828125 -0.890625 L 6.828125 0 L 1.109375 0 L 1.109375 -0.890625 L 3.390625 -0.890625 L 3.390625 -6.109375 L 1.59375 -6.109375 Z M 3.390625 -9.71875 L 4.546875 -9.71875 L 4.546875 -8.265625 L 3.390625 -8.265625 Z M 3.390625 -9.71875 "/>
</symbol>
<symbol overflow="visible" id="glyph0-8">
<path style="stroke:none;" d=""/>
</symbol>
<symbol overflow="visible" id="glyph0-9">
<path style="stroke:none;" d="M 6.078125 -6.75 L 6.078125 -5.625 C 5.753906 -5.820312 5.425781 -5.96875 5.09375 -6.0625 C 4.757812 -6.15625 4.414062 -6.203125 4.0625 -6.203125 C 3.539062 -6.203125 3.148438 -6.117188 2.890625 -5.953125 C 2.640625 -5.785156 2.515625 -5.53125 2.515625 -5.1875 C 2.515625 -4.875 2.609375 -4.640625 2.796875 -4.484375 C 2.992188 -4.328125 3.472656 -4.175781 4.234375 -4.03125 L 4.703125 -3.9375 C 5.273438 -3.832031 5.707031 -3.617188 6 -3.296875 C 6.289062 -2.972656 6.4375 -2.550781 6.4375 -2.03125 C 6.4375 -1.332031 6.191406 -0.785156 5.703125 -0.390625 C 5.210938 -0.00390625 4.53125 0.1875 3.65625 0.1875 C 3.300781 0.1875 2.9375 0.148438 2.5625 0.078125 C 2.1875 0.00390625 1.773438 -0.101562 1.328125 -0.25 L 1.328125 -1.4375 C 1.753906 -1.21875 2.164062 -1.050781 2.5625 -0.9375 C 2.957031 -0.832031 3.328125 -0.78125 3.671875 -0.78125 C 4.179688 -0.78125 4.578125 -0.882812 4.859375 -1.09375 C 5.140625 -1.300781 5.28125 -1.585938 5.28125 -1.953125 C 5.28125 -2.484375 4.769531 -2.851562 3.75 -3.0625 L 3.6875 -3.078125 L 3.265625 -3.15625 C 2.597656 -3.289062 2.113281 -3.507812 1.8125 -3.8125 C 1.507812 -4.125 1.359375 -4.539062 1.359375 -5.0625 C 1.359375 -5.738281 1.582031 -6.257812 2.03125 -6.625 C 2.488281 -6.988281 3.140625 -7.171875 3.984375 -7.171875 C 4.359375 -7.171875 4.71875 -7.132812 5.0625 -7.0625 C 5.40625 -6.988281 5.742188 -6.882812 6.078125 -6.75 Z M 6.078125 -6.75 "/>
</symbol>
<symbol overflow="visible" id="glyph0-10">
<path style="stroke:none;" d="M 1.421875 -7.015625 L 6.5 -7.015625 L 6.5 -5.96875 L 2.484375 -0.9375 L 6.5 -0.9375 L 6.5 0 L 1.265625 0 L 1.265625 -1.0625 L 5.28125 -6.09375 L 1.421875 -6.09375 Z M 1.421875 -7.015625 "/>
</symbol>
<symbol overflow="visible" id="glyph0-11">
<path style="stroke:none;" d="M 4.21875 -6.28125 C 4.363281 -6.582031 4.546875 -6.804688 4.765625 -6.953125 C 4.984375 -7.097656 5.25 -7.171875 5.5625 -7.171875 C 6.125 -7.171875 6.519531 -6.953125 6.75 -6.515625 C 6.976562 -6.078125 7.09375 -5.257812 7.09375 -4.0625 L 7.09375 0 L 6.046875 0 L 6.046875 -4 C 6.046875 -4.988281 5.988281 -5.601562 5.875 -5.84375 C 5.769531 -6.082031 5.570312 -6.203125 5.28125 -6.203125 C 4.945312 -6.203125 4.71875 -6.070312 4.59375 -5.8125 C 4.46875 -5.5625 4.40625 -4.957031 4.40625 -4 L 4.40625 0 L 3.359375 0 L 3.359375 -4 C 3.359375 -5 3.296875 -5.613281 3.171875 -5.84375 C 3.054688 -6.082031 2.84375 -6.203125 2.53125 -6.203125 C 2.226562 -6.203125 2.015625 -6.070312 1.890625 -5.8125 C 1.773438 -5.5625 1.71875 -4.957031 1.71875 -4 L 1.71875 0 L 0.6875 0 L 0.6875 -7 L 1.71875 -7 L 1.71875 -6.40625 C 1.863281 -6.644531 2.035156 -6.832031 2.234375 -6.96875 C 2.441406 -7.101562 2.675781 -7.171875 2.9375 -7.171875 C 3.257812 -7.171875 3.523438 -7.097656 3.734375 -6.953125 C 3.941406 -6.804688 4.101562 -6.582031 4.21875 -6.28125 Z M 4.21875 -6.28125 "/>
</symbol>
<symbol overflow="visible" id="glyph0-12">
<path style="stroke:none;" d="M 0.859375 -9.328125 L 2.125 -9.328125 L 2.125 -5.1875 L 6.0625 -9.328125 L 7.546875 -9.328125 L 3.921875 -5.515625 L 7.65625 0 L 6.125 0 L 3.09375 -4.671875 L 2.125 -3.65625 L 2.125 0 L 0.859375 0 Z M 0.859375 -9.328125 "/>
</symbol>
<symbol overflow="visible" id="glyph0-13">
<path style="stroke:none;" d="M 3.84375 -6.1875 C 3.257812 -6.1875 2.816406 -5.957031 2.515625 -5.5 C 2.222656 -5.050781 2.078125 -4.382812 2.078125 -3.5 C 2.078125 -2.601562 2.222656 -1.925781 2.515625 -1.46875 C 2.816406 -1.019531 3.257812 -0.796875 3.84375 -0.796875 C 4.4375 -0.796875 4.878906 -1.019531 5.171875 -1.46875 C 5.472656 -1.925781 5.625 -2.601562 5.625 -3.5 C 5.625 -4.382812 5.472656 -5.050781 5.171875 -5.5 C 4.878906 -5.957031 4.4375 -6.1875 3.84375 -6.1875 Z M 3.84375 -7.171875 C 4.820312 -7.171875 5.566406 -6.851562 6.078125 -6.21875 C 6.585938 -5.59375 6.84375 -4.6875 6.84375 -3.5 C 6.84375 -2.300781 6.585938 -1.382812 6.078125 -0.75 C 5.566406 -0.125 4.820312 0.1875 3.84375 0.1875 C 2.875 0.1875 2.132812 -0.125 1.625 -0.75 C 1.113281 -1.382812 0.859375 -2.300781 0.859375 -3.5 C 0.859375 -4.6875 1.113281 -5.59375 1.625 -6.21875 C 2.132812 -6.851562 2.875 -7.171875 3.84375 -7.171875 Z M 2 -9.703125 L 3.265625 -9.703125 L 3.265625 -8.4375 L 2 -8.4375 Z M 4.4375 -9.703125 L 5.703125 -9.703125 L 5.703125 -8.4375 L 4.4375 -8.4375 Z M 4.4375 -9.703125 "/>
</symbol>
<symbol overflow="visible" id="glyph0-14">
<path style="stroke:none;" d="M 6.5625 -4.34375 L 6.5625 0 L 5.40625 0 L 5.40625 -4.34375 C 5.40625 -4.96875 5.296875 -5.425781 5.078125 -5.71875 C 4.859375 -6.019531 4.515625 -6.171875 4.046875 -6.171875 C 3.503906 -6.171875 3.085938 -5.976562 2.796875 -5.59375 C 2.515625 -5.21875 2.375 -4.671875 2.375 -3.953125 L 2.375 0 L 1.21875 0 L 1.21875 -7 L 2.375 -7 L 2.375 -5.953125 C 2.570312 -6.347656 2.84375 -6.648438 3.1875 -6.859375 C 3.539062 -7.066406 3.957031 -7.171875 4.4375 -7.171875 C 5.15625 -7.171875 5.6875 -6.9375 6.03125 -6.46875 C 6.382812 -6 6.5625 -5.289062 6.5625 -4.34375 Z M 6.5625 -4.34375 "/>
</symbol>
<symbol overflow="visible" id="glyph0-15">
<path style="stroke:none;" d="M 5.359375 -2.25 C 5.171875 -1.757812 4.925781 -1.117188 4.625 -0.328125 C 4.21875 0.773438 3.941406 1.445312 3.796875 1.6875 C 3.609375 2.007812 3.367188 2.25 3.078125 2.40625 C 2.796875 2.570312 2.460938 2.65625 2.078125 2.65625 L 1.15625 2.65625 L 1.15625 1.703125 L 1.828125 1.703125 C 2.171875 1.703125 2.4375 1.601562 2.625 1.40625 C 2.8125 1.207031 3.054688 0.703125 3.359375 -0.109375 L 0.65625 -7 L 1.875 -7 L 3.9375 -1.53125 L 5.984375 -7 L 7.203125 -7 Z M 5.359375 -2.25 "/>
</symbol>
<symbol overflow="visible" id="glyph0-16">
<path style="stroke:none;" d="M 0.625 -7 L 1.8125 -7 L 3.84375 -1.125 L 5.890625 -7 L 7.078125 -7 L 4.59375 0 L 3.109375 0 Z M 0.625 -7 "/>
</symbol>
<symbol overflow="visible" id="glyph0-17">
<path style="stroke:none;" d="M 6.328125 -9.015625 L 6.328125 -7.734375 C 5.941406 -7.972656 5.554688 -8.15625 5.171875 -8.28125 C 4.785156 -8.40625 4.394531 -8.46875 4 -8.46875 C 3.40625 -8.46875 2.9375 -8.328125 2.59375 -8.046875 C 2.25 -7.773438 2.078125 -7.40625 2.078125 -6.9375 C 2.078125 -6.519531 2.1875 -6.203125 2.40625 -5.984375 C 2.632812 -5.773438 3.0625 -5.597656 3.6875 -5.453125 L 4.34375 -5.296875 C 5.21875 -5.097656 5.851562 -4.78125 6.25 -4.34375 C 6.65625 -3.90625 6.859375 -3.304688 6.859375 -2.546875 C 6.859375 -1.660156 6.582031 -0.984375 6.03125 -0.515625 C 5.488281 -0.046875 4.691406 0.1875 3.640625 0.1875 C 3.203125 0.1875 2.757812 0.140625 2.3125 0.046875 C 1.875 -0.046875 1.429688 -0.1875 0.984375 -0.375 L 0.984375 -1.71875 C 1.460938 -1.414062 1.914062 -1.191406 2.34375 -1.046875 C 2.769531 -0.910156 3.203125 -0.84375 3.640625 -0.84375 C 4.273438 -0.84375 4.769531 -0.984375 5.125 -1.265625 C 5.476562 -1.554688 5.65625 -1.957031 5.65625 -2.46875 C 5.65625 -2.9375 5.53125 -3.289062 5.28125 -3.53125 C 5.039062 -3.78125 4.617188 -3.972656 4.015625 -4.109375 L 3.34375 -4.265625 C 2.476562 -4.460938 1.847656 -4.757812 1.453125 -5.15625 C 1.066406 -5.550781 0.875 -6.078125 0.875 -6.734375 C 0.875 -7.566406 1.148438 -8.234375 1.703125 -8.734375 C 2.265625 -9.242188 3.007812 -9.5 3.9375 -9.5 C 4.300781 -9.5 4.679688 -9.457031 5.078125 -9.375 C 5.472656 -9.289062 5.890625 -9.171875 6.328125 -9.015625 Z M 6.328125 -9.015625 "/>
</symbol>
<symbol overflow="visible" id="glyph0-18">
<path style="stroke:none;" d="M 3.34375 -10.234375 L 4.40625 -10.234375 L 3 -7.890625 L 2.15625 -7.890625 Z M 5.421875 -10.234375 L 6.546875 -10.234375 L 5 -7.890625 L 4.15625 -7.890625 Z M 3.84375 -6.1875 C 3.257812 -6.1875 2.816406 -5.957031 2.515625 -5.5 C 2.222656 -5.050781 2.078125 -4.382812 2.078125 -3.5 C 2.078125 -2.601562 2.222656 -1.925781 2.515625 -1.46875 C 2.816406 -1.019531 3.257812 -0.796875 3.84375 -0.796875 C 4.4375 -0.796875 4.878906 -1.019531 5.171875 -1.46875 C 5.472656 -1.925781 5.625 -2.601562 5.625 -3.5 C 5.625 -4.382812 5.472656 -5.050781 5.171875 -5.5 C 4.878906 -5.957031 4.4375 -6.1875 3.84375 -6.1875 Z M 3.84375 -7.171875 C 4.820312 -7.171875 5.566406 -6.851562 6.078125 -6.21875 C 6.585938 -5.59375 6.84375 -4.6875 6.84375 -3.5 C 6.84375 -2.300781 6.585938 -1.382812 6.078125 -0.75 C 5.566406 -0.125 4.820312 0.1875 3.84375 0.1875 C 2.875 0.1875 2.132812 -0.125 1.625 -0.75 C 1.113281 -1.382812 0.859375 -2.300781 0.859375 -3.5 C 0.859375 -4.6875 1.113281 -5.59375 1.625 -6.21875 C 2.132812 -6.851562 2.875 -7.171875 3.84375 -7.171875 Z M 3.84375 -7.171875 "/>
</symbol>
<symbol overflow="visible" id="glyph0-19">
<path style="stroke:none;" d="M 4.390625 -3.515625 L 4 -3.515625 C 3.332031 -3.515625 2.828125 -3.394531 2.484375 -3.15625 C 2.148438 -2.925781 1.984375 -2.578125 1.984375 -2.109375 C 1.984375 -1.691406 2.109375 -1.363281 2.359375 -1.125 C 2.617188 -0.894531 2.972656 -0.78125 3.421875 -0.78125 C 4.054688 -0.78125 4.550781 -1 4.90625 -1.4375 C 5.269531 -1.875 5.457031 -2.484375 5.46875 -3.265625 L 5.46875 -3.515625 Z M 6.609375 -4 L 6.609375 0 L 5.46875 0 L 5.46875 -1.03125 C 5.21875 -0.613281 4.90625 -0.304688 4.53125 -0.109375 C 4.15625 0.0859375 3.703125 0.1875 3.171875 0.1875 C 2.460938 0.1875 1.894531 -0.015625 1.46875 -0.421875 C 1.039062 -0.828125 0.828125 -1.363281 0.828125 -2.03125 C 0.828125 -2.8125 1.085938 -3.40625 1.609375 -3.8125 C 2.140625 -4.21875 2.910156 -4.421875 3.921875 -4.421875 L 5.46875 -4.421875 L 5.46875 -4.59375 C 5.457031 -5.15625 5.3125 -5.5625 5.03125 -5.8125 C 4.757812 -6.0625 4.316406 -6.1875 3.703125 -6.1875 C 3.304688 -6.1875 2.90625 -6.128906 2.5 -6.015625 C 2.101562 -5.910156 1.71875 -5.75 1.34375 -5.53125 L 1.34375 -6.671875 C 1.769531 -6.835938 2.175781 -6.960938 2.5625 -7.046875 C 2.957031 -7.128906 3.335938 -7.171875 3.703125 -7.171875 C 4.273438 -7.171875 4.765625 -7.082031 5.171875 -6.90625 C 5.585938 -6.738281 5.925781 -6.484375 6.1875 -6.140625 C 6.34375 -5.929688 6.453125 -5.671875 6.515625 -5.359375 C 6.578125 -5.054688 6.609375 -4.601562 6.609375 -4 Z M 6.609375 -4 "/>
</symbol>
<symbol overflow="visible" id="glyph0-20">
<path style="stroke:none;" d="M 5.359375 -6.109375 L 5.359375 -9.71875 L 6.515625 -9.71875 L 6.515625 0 L 5.359375 0 L 5.359375 -0.875 C 5.171875 -0.53125 4.914062 -0.265625 4.59375 -0.078125 C 4.28125 0.0976562 3.914062 0.1875 3.5 0.1875 C 2.644531 0.1875 1.972656 -0.140625 1.484375 -0.796875 C 1.003906 -1.453125 0.765625 -2.359375 0.765625 -3.515625 C 0.765625 -4.648438 1.007812 -5.539062 1.5 -6.1875 C 1.988281 -6.84375 2.65625 -7.171875 3.5 -7.171875 C 3.914062 -7.171875 4.285156 -7.078125 4.609375 -6.890625 C 4.929688 -6.710938 5.179688 -6.453125 5.359375 -6.109375 Z M 1.984375 -3.5 C 1.984375 -2.601562 2.125 -1.925781 2.40625 -1.46875 C 2.6875 -1.019531 3.101562 -0.796875 3.65625 -0.796875 C 4.21875 -0.796875 4.640625 -1.023438 4.921875 -1.484375 C 5.210938 -1.941406 5.359375 -2.613281 5.359375 -3.5 C 5.359375 -4.382812 5.210938 -5.050781 4.921875 -5.5 C 4.640625 -5.957031 4.21875 -6.1875 3.65625 -6.1875 C 3.101562 -6.1875 2.6875 -5.957031 2.40625 -5.5 C 2.125 -5.050781 1.984375 -4.382812 1.984375 -3.5 Z M 1.984375 -3.5 "/>
</symbol>
<symbol overflow="visible" id="glyph0-21">
<path style="stroke:none;" d="M 3.84375 -6.1875 C 3.257812 -6.1875 2.816406 -5.957031 2.515625 -5.5 C 2.222656 -5.050781 2.078125 -4.382812 2.078125 -3.5 C 2.078125 -2.601562 2.222656 -1.925781 2.515625 -1.46875 C 2.816406 -1.019531 3.257812 -0.796875 3.84375 -0.796875 C 4.4375 -0.796875 4.878906 -1.019531 5.171875 -1.46875 C 5.472656 -1.925781 5.625 -2.601562 5.625 -3.5 C 5.625 -4.382812 5.472656 -5.050781 5.171875 -5.5 C 4.878906 -5.957031 4.4375 -6.1875 3.84375 -6.1875 Z M 3.84375 -7.171875 C 4.820312 -7.171875 5.566406 -6.851562 6.078125 -6.21875 C 6.585938 -5.59375 6.84375 -4.6875 6.84375 -3.5 C 6.84375 -2.300781 6.585938 -1.382812 6.078125 -0.75 C 5.566406 -0.125 4.820312 0.1875 3.84375 0.1875 C 2.875 0.1875 2.132812 -0.125 1.625 -0.75 C 1.113281 -1.382812 0.859375 -2.300781 0.859375 -3.5 C 0.859375 -4.6875 1.113281 -5.59375 1.625 -6.21875 C 2.132812 -6.851562 2.875 -7.171875 3.84375 -7.171875 Z M 4.71875 -10.234375 L 5.96875 -10.234375 L 3.9375 -7.890625 L 2.96875 -7.890625 Z M 4.71875 -10.234375 "/>
</symbol>
<symbol overflow="visible" id="glyph0-22">
<path style="stroke:none;" d="M 6.703125 -0.328125 C 6.378906 -0.160156 6.050781 -0.0351562 5.71875 0.046875 C 5.382812 0.140625 5.023438 0.1875 4.640625 0.1875 C 3.441406 0.1875 2.515625 -0.234375 1.859375 -1.078125 C 1.203125 -1.929688 0.875 -3.125 0.875 -4.65625 C 0.875 -6.175781 1.203125 -7.363281 1.859375 -8.21875 C 2.523438 -9.070312 3.453125 -9.5 4.640625 -9.5 C 5.023438 -9.5 5.382812 -9.453125 5.71875 -9.359375 C 6.050781 -9.273438 6.378906 -9.148438 6.703125 -8.984375 L 6.703125 -7.6875 C 6.398438 -7.945312 6.070312 -8.140625 5.71875 -8.265625 C 5.363281 -8.398438 5.003906 -8.46875 4.640625 -8.46875 C 3.816406 -8.46875 3.203125 -8.148438 2.796875 -7.515625 C 2.390625 -6.890625 2.1875 -5.9375 2.1875 -4.65625 C 2.1875 -3.382812 2.390625 -2.429688 2.796875 -1.796875 C 3.203125 -1.160156 3.816406 -0.84375 4.640625 -0.84375 C 5.003906 -0.84375 5.363281 -0.910156 5.71875 -1.046875 C 6.070312 -1.179688 6.398438 -1.375 6.703125 -1.625 Z M 6.703125 -0.328125 "/>
</symbol>
<symbol overflow="visible" id="glyph0-23">
<path style="stroke:none;" d="M 1.59375 -7 L 4.546875 -7 L 4.546875 -0.890625 L 6.828125 -0.890625 L 6.828125 0 L 1.109375 0 L 1.109375 -0.890625 L 3.390625 -0.890625 L 3.390625 -6.109375 L 1.59375 -6.109375 Z M 4.71875 -10.234375 L 5.96875 -10.234375 L 3.9375 -7.890625 L 2.96875 -7.890625 Z M 4.71875 -10.234375 "/>
</symbol>
<symbol overflow="visible" id="glyph0-24">
<path style="stroke:none;" d="M 0.875 -9.328125 L 2.46875 -9.328125 L 5.625 -1.65625 L 5.625 -9.328125 L 6.828125 -9.328125 L 6.828125 0 L 5.234375 0 L 2.09375 -7.671875 L 2.09375 0 L 0.875 0 Z M 0.875 -9.328125 "/>
</symbol>
<symbol overflow="visible" id="glyph0-25">
<path style="stroke:none;" d="M 6.953125 -3.78125 L 6.953125 -3.21875 L 1.96875 -3.21875 L 1.96875 -3.1875 C 1.96875 -2.425781 2.164062 -1.835938 2.5625 -1.421875 C 2.957031 -1.003906 3.519531 -0.796875 4.25 -0.796875 C 4.613281 -0.796875 4.992188 -0.851562 5.390625 -0.96875 C 5.796875 -1.082031 6.222656 -1.257812 6.671875 -1.5 L 6.671875 -0.359375 C 6.242188 -0.179688 5.828125 -0.046875 5.421875 0.046875 C 5.015625 0.140625 4.617188 0.1875 4.234375 0.1875 C 3.148438 0.1875 2.300781 -0.140625 1.6875 -0.796875 C 1.070312 -1.453125 0.765625 -2.351562 0.765625 -3.5 C 0.765625 -4.613281 1.0625 -5.503906 1.65625 -6.171875 C 2.257812 -6.835938 3.0625 -7.171875 4.0625 -7.171875 C 4.957031 -7.171875 5.660156 -6.867188 6.171875 -6.265625 C 6.691406 -5.660156 6.953125 -4.832031 6.953125 -3.78125 Z M 5.796875 -4.125 C 5.785156 -4.800781 5.628906 -5.3125 5.328125 -5.65625 C 5.023438 -6.007812 4.585938 -6.1875 4.015625 -6.1875 C 3.460938 -6.1875 3.003906 -6.003906 2.640625 -5.640625 C 2.285156 -5.273438 2.078125 -4.769531 2.015625 -4.125 Z M 4.8125 -10.234375 L 6.0625 -10.234375 L 4.03125 -7.890625 L 3.0625 -7.890625 Z M 4.8125 -10.234375 "/>
</symbol>
<symbol overflow="visible" id="glyph0-26">
<path style="stroke:none;" d="M 6.890625 -0.765625 C 6.554688 -0.453125 6.175781 -0.210938 5.75 -0.046875 C 5.332031 0.109375 4.878906 0.1875 4.390625 0.1875 C 3.203125 0.1875 2.28125 -0.234375 1.625 -1.078125 C 0.96875 -1.929688 0.640625 -3.125 0.640625 -4.65625 C 0.640625 -6.175781 0.972656 -7.363281 1.640625 -8.21875 C 2.304688 -9.070312 3.234375 -9.5 4.421875 -9.5 C 4.804688 -9.5 5.175781 -9.441406 5.53125 -9.328125 C 5.894531 -9.222656 6.242188 -9.054688 6.578125 -8.828125 L 6.578125 -7.53125 C 6.242188 -7.851562 5.898438 -8.085938 5.546875 -8.234375 C 5.191406 -8.390625 4.816406 -8.46875 4.421875 -8.46875 C 3.597656 -8.46875 2.976562 -8.148438 2.5625 -7.515625 C 2.15625 -6.878906 1.953125 -5.925781 1.953125 -4.65625 C 1.953125 -3.363281 2.148438 -2.40625 2.546875 -1.78125 C 2.953125 -1.15625 3.566406 -0.84375 4.390625 -0.84375 C 4.671875 -0.84375 4.914062 -0.875 5.125 -0.9375 C 5.332031 -1 5.519531 -1.101562 5.6875 -1.25 L 5.6875 -3.75 L 4.34375 -3.75 L 4.34375 -4.78125 L 6.890625 -4.78125 Z M 6.890625 -0.765625 "/>
</symbol>
<symbol overflow="visible" id="glyph0-27">
<path style="stroke:none;" d="M 3.34375 -10.234375 L 4.40625 -10.234375 L 3 -7.890625 L 2.15625 -7.890625 Z M 5.421875 -10.234375 L 6.546875 -10.234375 L 5 -7.890625 L 4.15625 -7.890625 Z M 1.21875 -2.65625 L 1.21875 -6.984375 L 2.375 -6.984375 L 2.375 -2.65625 C 2.375 -2.019531 2.484375 -1.550781 2.703125 -1.25 C 2.921875 -0.957031 3.265625 -0.8125 3.734375 -0.8125 C 4.273438 -0.8125 4.6875 -1.003906 4.96875 -1.390625 C 5.257812 -1.773438 5.40625 -2.320312 5.40625 -3.03125 L 5.40625 -6.984375 L 6.5625 -6.984375 L 6.5625 0 L 5.40625 0 L 5.40625 -1.046875 C 5.207031 -0.640625 4.929688 -0.332031 4.578125 -0.125 C 4.222656 0.0820312 3.8125 0.1875 3.34375 0.1875 C 2.625 0.1875 2.085938 -0.046875 1.734375 -0.515625 C 1.390625 -0.984375 1.21875 -1.695312 1.21875 -2.65625 Z M 1.21875 -2.65625 "/>
</symbol>
<symbol overflow="visible" id="glyph0-28">
<path style="stroke:none;" d="M 3.75 0.125 L 3.75 -6.109375 L 1.765625 -6.109375 L 1.765625 -7 L 4.90625 -7 L 4.90625 0.125 C 4.90625 0.9375 4.71875 1.5625 4.34375 2 C 3.96875 2.4375 3.4375 2.65625 2.75 2.65625 L 1.15625 2.65625 L 1.15625 1.6875 L 2.625 1.6875 C 3 1.6875 3.28125 1.554688 3.46875 1.296875 C 3.65625 1.035156 3.75 0.644531 3.75 0.125 Z M 3.75 -9.71875 L 4.90625 -9.71875 L 4.90625 -8.265625 L 3.75 -8.265625 Z M 3.75 -9.71875 "/>
</symbol>
<symbol overflow="visible" id="glyph0-29">
<path style="stroke:none;" d="M 3.84375 -8.21875 L 2.515625 -3.4375 L 5.1875 -3.4375 Z M 3.09375 -9.328125 L 4.625 -9.328125 L 7.46875 0 L 6.171875 0 L 5.484375 -2.4375 L 2.21875 -2.4375 L 1.53125 0 L 0.234375 0 Z M 4.203125 -11.859375 L 5.359375 -11.859375 L 3.9375 -10.21875 L 2.96875 -10.21875 Z M 4.203125 -11.859375 "/>
</symbol>
<symbol overflow="visible" id="glyph0-30">
<path style="stroke:none;" d="M 3.84375 -1.0625 L 6.046875 -9.328125 L 7.34375 -9.328125 L 4.625 0 L 3.09375 0 L 0.359375 -9.328125 L 1.65625 -9.328125 Z M 3.84375 -1.0625 "/>
</symbol>
<symbol overflow="visible" id="glyph0-31">
<path style="stroke:none;" d="M 3.84375 -6.1875 C 3.257812 -6.1875 2.816406 -5.957031 2.515625 -5.5 C 2.222656 -5.050781 2.078125 -4.382812 2.078125 -3.5 C 2.078125 -2.601562 2.222656 -1.925781 2.515625 -1.46875 C 2.816406 -1.019531 3.257812 -0.796875 3.84375 -0.796875 C 4.4375 -0.796875 4.878906 -1.019531 5.171875 -1.46875 C 5.472656 -1.925781 5.625 -2.601562 5.625 -3.5 C 5.625 -4.382812 5.472656 -5.050781 5.171875 -5.5 C 4.878906 -5.957031 4.4375 -6.1875 3.84375 -6.1875 Z M 3.84375 -7.171875 C 4.820312 -7.171875 5.566406 -6.851562 6.078125 -6.21875 C 6.585938 -5.59375 6.84375 -4.6875 6.84375 -3.5 C 6.84375 -2.300781 6.585938 -1.382812 6.078125 -0.75 C 5.566406 -0.125 4.820312 0.1875 3.84375 0.1875 C 2.875 0.1875 2.132812 -0.125 1.625 -0.75 C 1.113281 -1.382812 0.859375 -2.300781 0.859375 -3.5 C 0.859375 -4.6875 1.113281 -5.59375 1.625 -6.21875 C 2.132812 -6.851562 2.875 -7.171875 3.84375 -7.171875 Z M 3.84375 -7.171875 "/>
</symbol>
<symbol overflow="visible" id="glyph0-32">
<path style="stroke:none;" d="M 1.46875 -9.71875 L 2.65625 -9.71875 L 2.65625 -4.09375 L 5.6875 -7 L 7.078125 -7 L 4.328125 -4.359375 L 7.515625 0 L 6.109375 0 L 3.515625 -3.609375 L 2.65625 -2.8125 L 2.65625 0 L 1.46875 0 Z M 1.46875 -9.71875 "/>
</symbol>
<symbol overflow="visible" id="glyph0-33">
<path style="stroke:none;" d="M 4.75 -4.40625 C 5.070312 -4.320312 5.347656 -4.164062 5.578125 -3.9375 C 5.804688 -3.707031 6.09375 -3.242188 6.4375 -2.546875 L 7.703125 0 L 6.34375 0 L 5.234375 -2.359375 C 4.910156 -3.023438 4.617188 -3.453125 4.359375 -3.640625 C 4.109375 -3.835938 3.78125 -3.9375 3.375 -3.9375 L 2.15625 -3.9375 L 2.15625 0 L 0.890625 0 L 0.890625 -9.328125 L 3.5 -9.328125 C 4.519531 -9.328125 5.300781 -9.09375 5.84375 -8.625 C 6.394531 -8.164062 6.671875 -7.5 6.671875 -6.625 C 6.671875 -6.007812 6.5 -5.503906 6.15625 -5.109375 C 5.820312 -4.722656 5.351562 -4.488281 4.75 -4.40625 Z M 2.15625 -8.296875 L 2.15625 -4.984375 L 3.546875 -4.984375 C 4.148438 -4.984375 4.597656 -5.117188 4.890625 -5.390625 C 5.191406 -5.660156 5.34375 -6.070312 5.34375 -6.625 C 5.34375 -7.164062 5.179688 -7.578125 4.859375 -7.859375 C 4.546875 -8.148438 4.09375 -8.296875 3.5 -8.296875 Z M 2.15625 -8.296875 "/>
</symbol>
<symbol overflow="visible" id="glyph0-34">
<path style="stroke:none;" d="M 1.25 -9.328125 L 6.4375 -9.328125 L 6.4375 -8.265625 L 4.484375 -8.265625 L 4.484375 -1.0625 L 6.4375 -1.0625 L 6.4375 0 L 1.25 0 L 1.25 -1.0625 L 3.21875 -1.0625 L 3.21875 -8.265625 L 1.25 -8.265625 Z M 1.25 -9.328125 "/>
</symbol>
<symbol overflow="visible" id="glyph0-35">
<path style="stroke:none;" d="M 2.71875 -1.03125 C 3.78125 -1.03125 4.519531 -1.289062 4.9375 -1.8125 C 5.363281 -2.34375 5.578125 -3.289062 5.578125 -4.65625 C 5.578125 -6.03125 5.367188 -6.976562 4.953125 -7.5 C 4.535156 -8.03125 3.789062 -8.296875 2.71875 -8.296875 L 2.125 -8.296875 L 2.125 -1.03125 Z M 2.75 -9.328125 C 4.175781 -9.328125 5.222656 -8.945312 5.890625 -8.1875 C 6.566406 -7.425781 6.90625 -6.25 6.90625 -4.65625 C 6.90625 -3.0625 6.566406 -1.882812 5.890625 -1.125 C 5.222656 -0.375 4.175781 0 2.75 0 L 0.859375 0 L 0.859375 -9.328125 Z M 2.75 -9.328125 "/>
</symbol>
</g>
</defs>
<g id="surface7480">
<rect x="0" y="0" width="613" height="266" style="fill:rgb(100%,100%,100%);fill-opacity:1;stroke:none;"/>
<path style="fill-rule:evenodd;fill:rgb(100%,100%,100%);fill-opacity:1;stroke-width:0.1;stroke-linecap:butt;stroke-linejoin:miter;stroke:rgb(0%,0%,0%);stroke-opacity:1;stroke-miterlimit:10;" d="M -17.279136 7.517102 C -17.279136 8.014172 -18.760972 8.417102 -20.589097 8.417102 C -22.417222 8.417102 -23.899058 8.014172 -23.899058 7.517102 C -23.899058 7.020032 -22.417222 6.617102 -20.589097 6.617102 C -18.760972 6.617102 -17.279136 7.020032 -17.279136 7.517102 " transform="matrix(20,0,0,20,487.696,-9.99048)"/>
<g style="fill:rgb(0%,0%,0%);fill-opacity:1;">
  <use xlink:href="#glyph0-1" x="29.683594" y="144.35753"/>
  <use xlink:href="#glyph0-2" x="37.389757" y="144.35753"/>
  <use xlink:href="#glyph0-3" x="45.09592" y="144.35753"/>
  <use xlink:href="#glyph0-4" x="52.802083" y="144.35753"/>
  <use xlink:href="#glyph0-5" x="60.508247" y="144.35753"/>
  <use xlink:href="#glyph0-6" x="68.21441" y="144.35753"/>
  <use xlink:href="#glyph0-7" x="75.920573" y="144.35753"/>
  <use xlink:href="#glyph0-8" x="83.626736" y="144.35753"/>
  <use xlink:href="#glyph0-9" x="91.332899" y="144.35753"/>
  <use xlink:href="#glyph0-10" x="99.039062" y="144.35753"/>
  <use xlink:href="#glyph0-5" x="106.745226" y="144.35753"/>
  <use xlink:href="#glyph0-11" x="114.451389" y="144.35753"/>
</g>
<path style="fill:none;stroke-width:0.1;stroke-linecap:butt;stroke-linejoin:miter;stroke:rgb(0%,0%,0%);stroke-opacity:1;stroke-miterlimit:10;" d="M -22.899058 7.917102 L -18.279136 7.917102 " transform="matrix(20,0,0,20,487.696,-9.99048)"/>
<path style="fill-rule:evenodd;fill:rgb(100%,100%,100%);fill-opacity:1;stroke-width:0.1;stroke-linecap:butt;stroke-linejoin:miter;stroke:rgb(0%,0%,0%);stroke-opacity:1;stroke-miterlimit:10;" d="M -16.500034 10.949915 L -13.175034 10.949915 L -13.175034 12.749915 L -16.500034 12.749915 Z M -16.500034 10.949915 " transform="matrix(20,0,0,20,487.696,-9.99048)"/>
<g style="fill:rgb(0%,0%,0%);fill-opacity:1;">
  <use xlink:href="#glyph0-12" x="171.6875" y="231.01378"/>
  <use xlink:href="#glyph0-13" x="179.393663" y="231.01378"/>
  <use xlink:href="#glyph0-14" x="187.099826" y="231.01378"/>
  <use xlink:href="#glyph0-15" x="194.80599" y="231.01378"/>
  <use xlink:href="#glyph0-16" x="202.512153" y="231.01378"/>
</g>
<path style="fill-rule:evenodd;fill:rgb(100%,100%,100%);fill-opacity:1;stroke-width:0.1;stroke-linecap:butt;stroke-linejoin:miter;stroke:rgb(0%,0%,0%);stroke-opacity:1;stroke-miterlimit:10;" d="M -2.281675 0.954211 L 1.428286 0.954211 L 1.428286 2.754212 L -2.281675 2.754212 Z M -2.281675 0.954211 " transform="matrix(20,0,0,20,487.696,-9.99048)"/>
<g style="fill:rgb(0%,0%,0%);fill-opacity:1;">
  <use xlink:href="#glyph0-17" x="456.054687" y="31.099718"/>
  <use xlink:href="#glyph0-10" x="463.760851" y="31.099718"/>
  <use xlink:href="#glyph0-2" x="471.467014" y="31.099718"/>
  <use xlink:href="#glyph0-6" x="479.173177" y="31.099718"/>
  <use xlink:href="#glyph0-10" x="486.87934" y="31.099718"/>
  <use xlink:href="#glyph0-18" x="494.585503" y="31.099718"/>
</g>
<path style="fill-rule:evenodd;fill:rgb(100%,100%,100%);fill-opacity:1;stroke-width:0.1;stroke-linecap:butt;stroke-linejoin:miter;stroke:rgb(0%,0%,0%);stroke-opacity:1;stroke-miterlimit:10;" d="M -1.00687 8.781946 L 2.31813 8.781946 L 2.31813 10.581946 L -1.00687 10.581946 Z M -1.00687 8.781946 " transform="matrix(20,0,0,20,487.696,-9.99048)"/>
<g style="fill:rgb(0%,0%,0%);fill-opacity:1;">
  <use xlink:href="#glyph0-12" x="481.550781" y="187.654405"/>
  <use xlink:href="#glyph0-7" x="489.256944" y="187.654405"/>
  <use xlink:href="#glyph0-19" x="496.963108" y="187.654405"/>
  <use xlink:href="#glyph0-20" x="504.669271" y="187.654405"/>
  <use xlink:href="#glyph0-21" x="512.375434" y="187.654405"/>
</g>
<path style="fill:none;stroke-width:0.1;stroke-linecap:butt;stroke-linejoin:miter;stroke:rgb(0%,0%,0%);stroke-opacity:1;stroke-miterlimit:10;" d="M -19.425816 8.393469 L -16.099253 10.899524 " transform="matrix(20,0,0,20,487.696,-9.99048)"/>
<path style="fill-rule:evenodd;fill:rgb(100%,100%,100%);fill-opacity:1;stroke-width:0.1;stroke-linecap:butt;stroke-linejoin:miter;stroke:rgb(0%,0%,0%);stroke-opacity:1;stroke-miterlimit:10;" d="M -17.844956 10.749915 C -17.844956 11.246985 -18.551206 11.649915 -19.422495 11.649915 C -20.293784 11.649915 -21.000034 11.246985 -21.000034 10.749915 C -21.000034 10.25304 -20.293784 9.849915 -19.422495 9.849915 C -18.551206 9.849915 -17.844956 10.25304 -17.844956 10.749915 " transform="matrix(20,0,0,20,487.696,-9.99048)"/>
<g style="fill:rgb(0%,0%,0%);fill-opacity:1;">
  <use xlink:href="#glyph0-22" x="87.703125" y="209.01378"/>
  <use xlink:href="#glyph0-23" x="95.409288" y="209.01378"/>
  <use xlink:href="#glyph0-11" x="103.115451" y="209.01378"/>
</g>
<path style="fill:none;stroke-width:0.1;stroke-linecap:butt;stroke-linejoin:miter;stroke:rgb(0%,0%,0%);stroke-opacity:1;stroke-miterlimit:10;" d="M -17.919761 11.110461 L -16.549058 11.439368 " transform="matrix(20,0,0,20,487.696,-9.99048)"/>
<path style="fill-rule:evenodd;fill:rgb(100%,100%,100%);fill-opacity:1;stroke-width:0.1;stroke-linecap:butt;stroke-linejoin:miter;stroke:rgb(0%,0%,0%);stroke-opacity:1;stroke-miterlimit:10;" d="M 5.764028 1.449524 C 5.764028 1.946594 5.057778 2.349524 4.186489 2.349524 C 3.315395 2.349524 2.609145 1.946594 2.609145 1.449524 C 2.609145 0.952454 3.315395 0.549524 4.186489 0.549524 C 5.057778 0.549524 5.764028 0.952454 5.764028 1.449524 " transform="matrix(20,0,0,20,487.696,-9.99048)"/>
<g style="fill:rgb(0%,0%,0%);fill-opacity:1;">
  <use xlink:href="#glyph0-24" x="559.882812" y="23.005968"/>
  <use xlink:href="#glyph0-25" x="567.588976" y="23.005968"/>
  <use xlink:href="#glyph0-16" x="575.295139" y="23.005968"/>
</g>
<path style="fill:none;stroke-width:0.1;stroke-linecap:butt;stroke-linejoin:miter;stroke:rgb(0%,0%,0%);stroke-opacity:1;stroke-miterlimit:10;" d="M 2.5777 1.59054 L 1.476723 1.687219 " transform="matrix(20,0,0,20,487.696,-9.99048)"/>
<path style="fill-rule:evenodd;fill:rgb(100%,100%,100%);fill-opacity:1;stroke-width:0.1;stroke-linecap:butt;stroke-linejoin:miter;stroke:rgb(0%,0%,0%);stroke-opacity:1;stroke-miterlimit:10;" d="M -18.4848 12.88761 C -18.4848 13.38468 -19.79437 13.78761 -21.4098 13.78761 C -23.02523 13.78761 -24.3348 13.38468 -24.3348 12.88761 C -24.3348 12.39054 -23.02523 11.98761 -21.4098 11.98761 C -19.79437 11.98761 -18.4848 12.39054 -18.4848 12.88761 " transform="matrix(20,0,0,20,487.696,-9.99048)"/>
<g style="fill:rgb(0%,0%,0%);fill-opacity:1;">
  <use xlink:href="#glyph0-26" x="20.984375" y="251.767687"/>
  <use xlink:href="#glyph0-15" x="28.690538" y="251.767687"/>
  <use xlink:href="#glyph0-27" x="36.396701" y="251.767687"/>
  <use xlink:href="#glyph0-28" x="44.102865" y="251.767687"/>
  <use xlink:href="#glyph0-4" x="51.809028" y="251.767687"/>
  <use xlink:href="#glyph0-2" x="59.515191" y="251.767687"/>
  <use xlink:href="#glyph0-11" x="67.221354" y="251.767687"/>
  <use xlink:href="#glyph0-25" x="74.927517" y="251.767687"/>
  <use xlink:href="#glyph0-14" x="82.633681" y="251.767687"/>
  <use xlink:href="#glyph0-15" x="90.339844" y="251.767687"/>
</g>
<path style="fill:none;stroke-width:0.1;stroke-linecap:butt;stroke-linejoin:miter;stroke:rgb(0%,0%,0%);stroke-opacity:1;stroke-miterlimit:10;" d="M -18.758237 12.469055 L -16.550034 12.120422 " transform="matrix(20,0,0,20,487.696,-9.99048)"/>
<path style="fill-rule:evenodd;fill:rgb(100%,100%,100%);fill-opacity:1;stroke-width:0.1;stroke-linecap:butt;stroke-linejoin:miter;stroke:rgb(0%,0%,0%);stroke-opacity:1;stroke-miterlimit:10;" d="M -8.072691 5.763001 L -5.72523 4.354602 L -3.377769 5.763001 L -5.72523 7.171594 Z M -8.072691 5.763001 " transform="matrix(20,0,0,20,487.696,-9.99048)"/>
<g style="fill:rgb(0%,0%,0%);fill-opacity:1;">
  <use xlink:href="#glyph0-12" x="346.238281" y="109.275499"/>
  <use xlink:href="#glyph0-7" x="353.944444" y="109.275499"/>
  <use xlink:href="#glyph0-8" x="361.650608" y="109.275499"/>
  <use xlink:href="#glyph0-23" x="369.356771" y="109.275499"/>
  <use xlink:href="#glyph0-6" x="377.062934" y="109.275499"/>
  <use xlink:href="#glyph0-4" x="384.769097" y="109.275499"/>
  <use xlink:href="#glyph0-19" x="392.47526" y="109.275499"/>
</g>
<path style="fill:none;stroke-width:0.1;stroke-linecap:butt;stroke-linejoin:miter;stroke:rgb(0%,0%,0%);stroke-opacity:1;stroke-miterlimit:10;" d="M -3.330308 5.80343 C -0.872691 5.845032 -0.411167 4.063196 -0.420152 2.80343 " transform="matrix(20,0,0,20,487.696,-9.99048)"/>
<path style="fill:none;stroke-width:0.1;stroke-linecap:butt;stroke-linejoin:miter;stroke:rgb(0%,0%,0%);stroke-opacity:1;stroke-miterlimit:10;" d="M -8.123081 5.763001 C -10.193003 5.763001 -11.054917 11.849915 -13.124839 11.849915 " transform="matrix(20,0,0,20,487.696,-9.99048)"/>
<path style="fill-rule:evenodd;fill:rgb(100%,100%,100%);fill-opacity:1;stroke-width:0.1;stroke-linecap:butt;stroke-linejoin:miter;stroke:rgb(0%,0%,0%);stroke-opacity:1;stroke-miterlimit:10;" d="M 6.237856 8.103235 C 6.237856 8.600305 5.531606 9.003235 4.660317 9.003235 C 3.789028 9.003235 3.082778 8.600305 3.082778 8.103235 C 3.082778 7.606165 3.789028 7.203235 4.660317 7.203235 C 5.531606 7.203235 6.237856 7.606165 6.237856 8.103235 " transform="matrix(20,0,0,20,487.696,-9.99048)"/>
<g style="fill:rgb(0%,0%,0%);fill-opacity:1;">
  <use xlink:href="#glyph0-24" x="569.359375" y="156.080187"/>
  <use xlink:href="#glyph0-25" x="577.065538" y="156.080187"/>
  <use xlink:href="#glyph0-16" x="584.771701" y="156.080187"/>
</g>
<path style="fill:none;stroke-width:0.1;stroke-linecap:butt;stroke-linejoin:miter;stroke:rgb(0%,0%,0%);stroke-opacity:1;stroke-miterlimit:10;" d="M 4.082778 8.503235 L 5.237856 8.503235 " transform="matrix(20,0,0,20,487.696,-9.99048)"/>
<path style="fill:none;stroke-width:0.1;stroke-linecap:butt;stroke-linejoin:miter;stroke:rgb(0%,0%,0%);stroke-opacity:1;stroke-miterlimit:10;" d="M 3.316372 8.632922 L 2.364614 9.008313 " transform="matrix(20,0,0,20,487.696,-9.99048)"/>
<path style="fill-rule:evenodd;fill:rgb(100%,100%,100%);fill-opacity:1;stroke-width:0.1;stroke-linecap:butt;stroke-linejoin:miter;stroke:rgb(0%,0%,0%);stroke-opacity:1;stroke-miterlimit:10;" d="M 3.467348 6.196985 C 3.467348 6.694055 2.761098 7.096985 1.889809 7.096985 C 1.018716 7.096985 0.31227 6.694055 0.31227 6.196985 C 0.31227 5.699915 1.018716 5.296985 1.889809 5.296985 C 2.761098 5.296985 3.467348 5.699915 3.467348 6.196985 " transform="matrix(20,0,0,20,487.696,-9.99048)"/>
<g style="fill:rgb(0%,0%,0%);fill-opacity:1;">
  <use xlink:href="#glyph0-22" x="513.949219" y="117.955187"/>
  <use xlink:href="#glyph0-23" x="521.655382" y="117.955187"/>
  <use xlink:href="#glyph0-11" x="529.361545" y="117.955187"/>
</g>
<path style="fill:none;stroke-width:0.1;stroke-linecap:butt;stroke-linejoin:miter;stroke:rgb(0%,0%,0%);stroke-opacity:1;stroke-miterlimit:10;" d="M 1.560708 7.126477 L 0.992153 8.731946 " transform="matrix(20,0,0,20,487.696,-9.99048)"/>
<path style="fill:none;stroke-width:0.1;stroke-linecap:butt;stroke-linejoin:miter;stroke:rgb(0%,0%,0%);stroke-opacity:1;stroke-miterlimit:10;" d="M -3.109409 10.738782 C -2.090659 10.744446 -1.569175 9.631555 -1.05687 9.643079 " transform="matrix(20,0,0,20,487.696,-9.99048)"/>
<path style="fill-rule:evenodd;fill:rgb(100%,100%,100%);fill-opacity:1;stroke-width:0.1;stroke-linecap:butt;stroke-linejoin:miter;stroke:rgb(0%,0%,0%);stroke-opacity:1;stroke-miterlimit:10;" d="M -14.261363 5.979993 C -14.261363 6.477063 -14.88148 6.879993 -15.646323 6.879993 C -16.411167 6.879993 -17.031284 6.477063 -17.031284 5.979993 C -17.031284 5.482922 -16.411167 5.079993 -15.646323 5.079993 C -14.88148 5.079993 -14.261363 5.482922 -14.261363 5.979993 " transform="matrix(20,0,0,20,487.696,-9.99048)"/>
<g style="fill:rgb(0%,0%,0%);fill-opacity:1;">
  <use xlink:href="#glyph0-29" x="167.074219" y="113.615343"/>
  <use xlink:href="#glyph0-6" x="174.780382" y="113.615343"/>
</g>
<path style="fill:none;stroke-width:0.1;stroke-linecap:butt;stroke-linejoin:miter;stroke:rgb(0%,0%,0%);stroke-opacity:1;stroke-miterlimit:10;" d="M -15.515855 6.926282 L -14.968394 10.900501 " transform="matrix(20,0,0,20,487.696,-9.99048)"/>
<path style="fill-rule:evenodd;fill:rgb(100%,100%,100%);fill-opacity:1;stroke-width:0.1;stroke-linecap:butt;stroke-linejoin:miter;stroke:rgb(0%,0%,0%);stroke-opacity:1;stroke-miterlimit:10;" d="M -16.264683 4.035462 C -16.264683 4.532532 -17.401792 4.935462 -18.804527 4.935462 C -20.207456 4.935462 -21.344566 4.532532 -21.344566 4.035462 C -21.344566 3.538391 -20.207456 3.135462 -18.804527 3.135462 C -17.401792 3.135462 -16.264683 3.538391 -16.264683 4.035462 " transform="matrix(20,0,0,20,487.696,-9.99048)"/>
<g style="fill:rgb(0%,0%,0%);fill-opacity:1;">
  <use xlink:href="#glyph0-30" x="80.785156" y="74.724718"/>
  <use xlink:href="#glyph0-31" x="88.491319" y="74.724718"/>
  <use xlink:href="#glyph0-14" x="96.197483" y="74.724718"/>
  <use xlink:href="#glyph0-19" x="103.903646" y="74.724718"/>
  <use xlink:href="#glyph0-3" x="111.609809" y="74.724718"/>
  <use xlink:href="#glyph0-32" x="119.315972" y="74.724718"/>
  <use xlink:href="#glyph0-21" x="127.022135" y="74.724718"/>
  <use xlink:href="#glyph0-20" x="134.728299" y="74.724718"/>
</g>
<path style="fill:none;stroke-width:0.1;stroke-linecap:butt;stroke-linejoin:miter;stroke:rgb(0%,0%,0%);stroke-opacity:1;stroke-miterlimit:10;" d="M -18.335777 4.958899 L -15.318784 10.901868 " transform="matrix(20,0,0,20,487.696,-9.99048)"/>
<path style="fill-rule:evenodd;fill:rgb(100%,100%,100%);fill-opacity:1;stroke-width:0.1;stroke-linecap:butt;stroke-linejoin:miter;stroke:rgb(0%,0%,0%);stroke-opacity:1;stroke-miterlimit:10;" d="M -9.749253 2.585852 C -9.749253 3.082922 -11.231089 3.485852 -13.059214 3.485852 C -14.887339 3.485852 -16.369175 3.082922 -16.369175 2.585852 C -16.369175 2.088782 -14.887339 1.685852 -13.059214 1.685852 C -11.231089 1.685852 -9.749253 2.088782 -9.749253 2.585852 " transform="matrix(20,0,0,20,487.696,-9.99048)"/>
<g style="fill:rgb(0%,0%,0%);fill-opacity:1;">
  <use xlink:href="#glyph0-33" x="180.28125" y="45.73253"/>
  <use xlink:href="#glyph0-19" x="187.987413" y="45.73253"/>
  <use xlink:href="#glyph0-32" x="195.693576" y="45.73253"/>
  <use xlink:href="#glyph0-4" x="203.39974" y="45.73253"/>
  <use xlink:href="#glyph0-5" x="211.105903" y="45.73253"/>
  <use xlink:href="#glyph0-6" x="218.812066" y="45.73253"/>
  <use xlink:href="#glyph0-7" x="226.518229" y="45.73253"/>
  <use xlink:href="#glyph0-8" x="234.224392" y="45.73253"/>
  <use xlink:href="#glyph0-9" x="241.930556" y="45.73253"/>
  <use xlink:href="#glyph0-10" x="249.636719" y="45.73253"/>
  <use xlink:href="#glyph0-5" x="257.342882" y="45.73253"/>
  <use xlink:href="#glyph0-11" x="265.049045" y="45.73253"/>
</g>
<path style="fill:none;stroke-width:0.1;stroke-linecap:butt;stroke-linejoin:miter;stroke:rgb(0%,0%,0%);stroke-opacity:1;stroke-miterlimit:10;" d="M -13.241245 3.534094 L -14.655113 10.899719 " transform="matrix(20,0,0,20,487.696,-9.99048)"/>
<path style="fill-rule:evenodd;fill:rgb(100%,100%,100%);fill-opacity:1;stroke-width:0.1;stroke-linecap:butt;stroke-linejoin:miter;stroke:rgb(0%,0%,0%);stroke-opacity:1;stroke-miterlimit:10;" d="M -7.854527 10.725305 L -5.507066 9.316712 L -3.159605 10.725305 L -5.507066 12.133704 Z M -7.854527 10.725305 " transform="matrix(20,0,0,20,487.696,-9.99048)"/>
<g style="fill:rgb(0%,0%,0%);fill-opacity:1;">
  <use xlink:href="#glyph0-12" x="350.601562" y="208.521593"/>
  <use xlink:href="#glyph0-7" x="358.307726" y="208.521593"/>
  <use xlink:href="#glyph0-19" x="366.013889" y="208.521593"/>
  <use xlink:href="#glyph0-20" x="373.720052" y="208.521593"/>
  <use xlink:href="#glyph0-21" x="381.426215" y="208.521593"/>
  <use xlink:href="#glyph0-28" x="389.132378" y="208.521593"/>
  <use xlink:href="#glyph0-19" x="396.838542" y="208.521593"/>
</g>
<path style="fill:none;stroke-width:0.1;stroke-linecap:butt;stroke-linejoin:miter;stroke:rgb(0%,0%,0%);stroke-opacity:1;stroke-miterlimit:10;" d="M -13.12523 11.849915 C -10.227183 11.849915 -10.801792 10.725305 -7.90355 10.725305 " transform="matrix(20,0,0,20,487.696,-9.99048)"/>
<path style="fill-rule:evenodd;fill:rgb(100%,100%,100%);fill-opacity:1;stroke-width:0.1;stroke-linecap:butt;stroke-linejoin:miter;stroke:rgb(0%,0%,0%);stroke-opacity:1;stroke-miterlimit:10;" d="M -3.8223 1.460266 C -3.8223 1.957337 -4.442417 2.360266 -5.207261 2.360266 C -5.972105 2.360266 -6.592222 1.957337 -6.592222 1.460266 C -6.592222 0.963196 -5.972105 0.560266 -5.207261 0.560266 C -4.442417 0.560266 -3.8223 0.963196 -3.8223 1.460266 " transform="matrix(20,0,0,20,487.696,-9.99048)"/>
<g style="fill:rgb(0%,0%,0%);fill-opacity:1;">
  <use xlink:href="#glyph0-34" x="375.855469" y="23.220812"/>
  <use xlink:href="#glyph0-35" x="383.561632" y="23.220812"/>
</g>
<path style="fill:none;stroke-width:0.1;stroke-linecap:butt;stroke-linejoin:miter;stroke:rgb(0%,0%,0%);stroke-opacity:1;stroke-miterlimit:10;" d="M -5.592222 1.860266 L -4.8223 1.860266 " transform="matrix(20,0,0,20,487.696,-9.99048)"/>
<path style="fill:none;stroke-width:0.1;stroke-linecap:butt;stroke-linejoin:miter;stroke:rgb(0%,0%,0%);stroke-opacity:1;stroke-miterlimit:10;" d="M -3.785777 1.577454 L -2.332066 1.69718 " transform="matrix(20,0,0,20,487.696,-9.99048)"/>
</g>
</svg>
